%YAML 1.1
%TAG !u! tag:unity3d.com,2011:
--- !u!21 &2100000
Material:
  serializedVersion: 6
  m_ObjectHideFlags: 0
  m_PrefabParentObject: {fileID: 0}
  m_PrefabInternal: {fileID: 0}
  m_Name: ToonShader_Head_Clipping
  m_Shader: {fileID: 4800000, guid: 345def18d0906d544b7d12b050937392, type: 3}
  m_ShaderKeywords: _ISKAGE_NORMAL_ON _ISMATCAP_NORMAL_ON _ISRIM_NORMAL_ON _IS_BLENDADDTOHICOLOR_ON
    _IS_BLENDADDTOMATCAP_ON _IS_BLENDBASECOLOR_ON _IS_NORMALMAPTOBASE_ON _IS_NORMALMAPTOHIGHCOLOR_ON
    _IS_NORMALMAPTORIMLIGHT_ON _IS_SPECULARTOHIGHCOLOR_ON _IS_USETWEAKMATCAPONSHADOW_ON
    _KAGE_NORMAL_ON _RIMLIGHT_ON _RIM_NORMAL_ON _SET_SYSTEMSHADOWSTOBASE_ON
  m_LightmapFlags: 5
  m_EnableInstancingVariants: 0
  m_DoubleSidedGI: 0
  m_CustomRenderQueue: -1
  stringTagMap: {}
  disabledShaderPasses: []
  m_SavedProperties:
    serializedVersion: 3
    m_TexEnvs:
    - _1st_ShadeMap:
        m_Texture: {fileID: 2800000, guid: e22da664ebab32d4ca5bea4d43b0ff43, type: 3}
        m_Scale: {x: 1, y: 1}
        m_Offset: {x: 0, y: 0}
    - _2nd_ShadeMap:
        m_Texture: {fileID: 2800000, guid: e22da664ebab32d4ca5bea4d43b0ff43, type: 3}
        m_Scale: {x: 1, y: 1}
        m_Offset: {x: 0, y: 0}
    - _BaseMap:
        m_Texture: {fileID: 2800000, guid: 38b0fd74fd3c31140bf78e39b7db1534, type: 3}
        m_Scale: {x: 1, y: 1}
        m_Offset: {x: 0, y: 0}
    - _BumpMap:
        m_Texture: {fileID: 2800000, guid: 0acd5974827369042b71efa22a9a1947, type: 3}
        m_Scale: {x: 1, y: 1}
        m_Offset: {x: 0, y: 0}
    - _ClippingMask:
        m_Texture: {fileID: 2800000, guid: ca274bbcd97667e40a1256659a03d107, type: 3}
        m_Scale: {x: 1, y: 1}
        m_Offset: {x: 0, y: 0}
    - _KageTexture:
        m_Texture: {fileID: 2800000, guid: e22da664ebab32d4ca5bea4d43b0ff43, type: 3}
        m_Scale: {x: 1, y: 1}
        m_Offset: {x: 0, y: 0}
    - _MainTex:
        m_Texture: {fileID: 2800000, guid: 38b0fd74fd3c31140bf78e39b7db1534, type: 3}
        m_Scale: {x: 1, y: 1}
        m_Offset: {x: 0, y: 0}
    - _MatCap_Sampler:
        m_Texture: {fileID: 0}
        m_Scale: {x: 1, y: 1}
        m_Offset: {x: 0, y: 0}
    - _Matcap:
        m_Texture: {fileID: 2800000, guid: e08e6fdb10bba954f95c0eccee984354, type: 3}
        m_Scale: {x: 1, y: 1}
        m_Offset: {x: 0, y: 0}
    - _NormalMap:
        m_Texture: {fileID: 2800000, guid: 0acd5974827369042b71efa22a9a1947, type: 3}
        m_Scale: {x: 1, y: 1}
        m_Offset: {x: 0, y: 0}
    - _NormalMapForMatCap:
        m_Texture: {fileID: 0}
        m_Scale: {x: 5, y: 1}
        m_Offset: {x: 0, y: 0}
    - _Outline_Sampler:
        m_Texture: {fileID: 2800000, guid: 134966e3fbedc674ea419707cf30151f, type: 3}
        m_Scale: {x: 1, y: 1}
        m_Offset: {x: 0, y: 0}
    - _Outline_sampler:
        m_Texture: {fileID: 2800000, guid: 134966e3fbedc674ea419707cf30151f, type: 3}
        m_Scale: {x: 1, y: 1}
        m_Offset: {x: 0, y: 0}
    - _SetKage:
        m_Texture: {fileID: 2800000, guid: e3dea608eb5dc487ba8a004e9a8064bb, type: 3}
        m_Scale: {x: 1, y: 1}
        m_Offset: {x: 0, y: 0}
    - _Set_1st_ShadePosition:
        m_Texture: {fileID: 0}
        m_Scale: {x: 1, y: 1}
        m_Offset: {x: 0, y: 0}
    - _Set_2nd_ShadePosition:
        m_Texture: {fileID: 0}
        m_Scale: {x: 1, y: 1}
        m_Offset: {x: 0, y: 0}
    - _Set_HighColorMask:
        m_Texture: {fileID: 0}
        m_Scale: {x: 1, y: 1}
        m_Offset: {x: 0, y: 0}
    - _Set_HighColorPosition:
        m_Texture: {fileID: 0}
        m_Scale: {x: 1, y: 1}
        m_Offset: {x: 0, y: 0}
    - _Set_RimLightMask:
        m_Texture: {fileID: 0}
        m_Scale: {x: 1, y: 1}
        m_Offset: {x: 0, y: 0}
    - _node_8288:
        m_Texture: {fileID: 0}
        m_Scale: {x: 1, y: 1}
        m_Offset: {x: 0, y: 0}
    - _setKage:
        m_Texture: {fileID: 2800000, guid: 183c0658d5d271744855ca64d29a7515, type: 3}
        m_Scale: {x: 1, y: 1}
        m_Offset: {x: 0, y: 0}
    m_Floats:
    - _1st2nd_Shades_Feather: 0.064
    - _Add_Antipodean_RimLight: 0
    - _Ap_RimLight_FeatherOff: 0
    - _Ap_RimLight_Power: 0.1
    - _BaseColor_Step: 0.815
    - _BaseShade_Feather: 0.13
    - _BaseTexContrast: 0.38
    - _BaseTexPower: 0.34
    - _Blightness: 0.67
    - _Clipping_Level: 0.269
    - _Contrast: 0.12
    - _CullMode: 2
    - _Cutoff: 0.5
    - _Farthest_Distance: 10
    - _GI_Intensity: 0
    - _Gloss: 0
    - _HighColor_Power: 0.2
    - _Inverse_Clipping: 0
    - _Is_BlendAddToHiColor: 1
    - _Is_BlendAddToMatCap: 1
    - _Is_BlendBaseColor: 1
    - _Is_LightColor_1st_Shade: 1
    - _Is_LightColor_2nd_Shade: 1
    - _Is_LightColor_Ap_RimLight: 1
    - _Is_LightColor_Base: 1
    - _Is_LightColor_HighColor: 1
    - _Is_LightColor_MatCap: 1
    - _Is_LightColor_RimLight: 1
    - _Is_NormalMapForMatCap: 0
    - _Is_NormalMapToBase: 1
    - _Is_NormalMapToHighColor: 1
    - _Is_NormalMapToRimLight: 1
    - _Is_SpecularToHighColor: 1
    - _Is_UseTweakHighColorOnShadow: 0
    - _Is_UseTweakMatCapOnShadow: 1
    - _KageTexPower: 2
    - _Kage_Normal: 1
    - _Kage_Normal_copy: 0
    - _LightDirection_MaskOn: 0
    - _MatCap: 0
    - _Max_Outline_Width: 0.005
    - _Metallic: 0
    - _Mix_BaseTexture: 0.5
    - _Mix_KageTexture: 0.49
    - _Nearest_Distance: 0.5
    - _Offset_Z: 0
    - _Outline: 0.003
    - _Outline_Power: 0.7
    - _Outline_Width: 5
    - _RimLight: 1
    - _RimLight_FeatherOff: 0
    - _RimLight_InsideMask: 0.0001
    - _RimLight_Power: 0.6
    - _Rim_Normal: 1
    - _Rim_Normal_copy: 0
    - _Rim_Sharpness: 5
    - _Rotate_MatCapUV: 0
    - _Rotate_NormalMapForMatCapUV: 0
    - _Set_SystemShadowsToBase: 1
    - _Set_SystemShadowsToHighColor: 0
    - _ShadeColor_Step: 0.722
    - _ShadePower: 0.43
    - _TessLevel: 1
    - _TweakHighColorOnShadow: 0
    - _TweakMatCapOnShadow: 0
    - _Tweak_HighColorMaskLevel: 0
    - _Tweak_LightDirection_MaskLevel: 0
    - _Tweak_MatCapUV: 0
    - _Tweak_RimLightMaskLevel: 0
    - _Tweak_SystemShadowsLevel: 0
    - _Tweak_UV: 0
    - _isKage_Normal: 1
    - _isMatcap_Normal: 1
    - _isRim_Normal: 1
    - _node_183: 0.51
    - _node_1959: 1
    - _node_224: 0
    - _node_9155: 0
    m_Colors:
    - _1st_ShadeColor: {r: 1, g: 1, b: 1, a: 1}
    - _2nd_ShadeColor: {r: 0.8602941, g: 0.664852, b: 0.45544982, a: 1}
    - _Ap_RimLightColor: {r: 1, g: 1, b: 1, a: 1}
    - _BaseColor: {r: 1, g: 1, b: 1, a: 0.99087894}
    - _Color: {r: 0, g: 0, b: 0, a: 1}
    - _HighColor: {r: 0.53676474, g: 0.50124353, b: 0.50124353, a: 1}
    - _Line_Color: {r: 0.6901961, g: 0.5647059, b: 0.42745098, a: 1}
    - _MatCapColor: {r: 0.30147058, g: 0.30147058, b: 0.30147058, a: 1}
    - _Outline_Color: {r: 0.5, g: 0.5, b: 0.5, a: 1}
    - _RimLightColor: {r: 0.6911765, g: 0.43110907, b: 0.15246537, a: 1}
    - _Rim_Color: {r: 0.1764706, g: 0.14509805, b: 0.08627451, a: 1}
